<svg width="74" height="74" viewBox="0 0 74 74" fill="none" xmlns="http://www.w3.org/2000/svg">
<path d="M37.7829 4.60013C20.3229 4.60013 6.16734 18.645 6.16734 35.9719C6.16734 41.8988 7.82511 47.442 10.7041 52.1711L4.99805 69.0019L22.5021 63.4412C27.0315 65.926 32.2407 67.3436 37.7829 67.3436C55.2451 67.3436 69.3999 53.2967 69.3999 35.9719C69.3999 18.645 55.2451 4.60013 37.7829 4.60013ZM53.5041 47.8859C52.7603 49.7298 49.3965 51.4126 47.9122 51.4901C46.4295 51.5687 46.3873 52.6393 38.3037 49.1277C30.2211 45.6152 25.3584 37.0747 24.975 36.5247C24.5913 35.9767 21.844 32.0616 21.9922 28.1216C22.1414 24.1809 24.299 22.3217 25.0691 21.5484C25.8384 20.774 26.7203 20.6353 27.2588 20.6265C27.8953 20.6162 28.3076 20.6076 28.7787 20.625C29.2494 20.6428 29.9563 20.5265 30.5684 22.1544C31.1803 23.7821 32.6447 27.7828 32.832 28.1905C33.0192 28.5986 33.135 29.0711 32.8467 29.5951C32.5574 30.1202 32.4094 30.4483 31.9897 30.9008C31.5678 31.3533 31.1022 31.9131 30.7258 32.2591C30.3061 32.6422 29.8676 33.0601 30.309 33.8791C30.75 34.6975 32.2716 37.3804 34.5898 39.5913C37.5691 42.4335 40.1384 43.3762 40.9291 43.8057C41.7219 44.2376 42.195 44.1896 42.6866 43.6722C43.176 43.1548 44.791 41.4086 45.3599 40.6291C45.9284 39.8473 46.4612 40.0004 47.1916 40.2943C47.9216 40.5892 51.8143 42.6742 52.6072 43.1048C53.3993 43.5345 53.9288 43.7559 54.1181 44.0967C54.3074 44.4388 54.2476 46.0418 53.5041 47.8859Z" fill="black"/>
</svg>
