<svg width="74" height="86" viewBox="0 0 74 86" fill="none" xmlns="http://www.w3.org/2000/svg">
<path d="M0 0.125L6.72552 75.8836L37 85.875L67.2745 75.8836L74 0.125H0ZM60.337 15.4375L59.412 24.491L37.1927 33.9273L37.1349 33.9465H58.6219L56.1552 62.0066L37.2312 67.5L18.1917 61.9109L16.9583 47.766H26.3818L26.9984 55.0969L37.1349 57.6426L47.676 54.6949L48.3891 42.9043L16.3417 42.8086V42.7895L16.3031 42.8086L15.6094 33.9465L37.212 25.0078L38.4646 24.491H14.7807L13.663 15.4375H60.337Z" fill="#3293ED"/>
</svg>
