<svg width="73" height="99" viewBox="0 0 73 99" fill="none" xmlns="http://www.w3.org/2000/svg">
<path d="M53.1393 60.5013C55.0345 59.2059 57.6645 58.0844 57.6645 58.0844C57.6645 58.0844 50.1805 59.4379 42.7352 60.0566C33.6267 60.8107 23.8414 60.9654 18.9294 60.308C7.30694 58.7611 25.3111 54.4879 25.3111 54.4879C25.3111 54.4879 18.3299 54.0239 9.72426 58.1617C-0.428474 63.073 34.8644 65.3159 53.1393 60.5013ZM36.6242 54.2946C32.9499 46.0383 20.5539 38.7874 36.6242 26.1032C56.6705 10.2866 46.3902 0 46.3902 0C50.5479 16.3386 31.7702 21.2886 24.9824 31.4398C20.3605 38.3813 27.245 45.8256 36.6242 54.2946ZM58.7862 20.2251C58.8055 20.2251 24.905 28.6942 41.0914 47.3337C45.868 52.8251 39.8344 57.775 39.8344 57.775C39.8344 57.775 51.9597 51.5103 46.3902 43.6793C41.1881 36.3704 37.2043 32.7353 58.7862 20.2251ZM57.6065 72.5281C57.5008 72.7124 57.3707 72.8815 57.2197 73.0309C82.0311 66.5147 72.9033 50.0407 61.0488 54.2172C60.4085 54.4525 59.8553 54.8775 59.463 55.4354C60.1553 55.1849 60.8667 54.9909 61.5903 54.8553C67.5852 53.5985 76.1909 62.8796 57.6065 72.5281ZM66.7266 84.5743C66.7266 84.5743 69.5307 86.8752 63.6517 88.6734C52.4547 92.0572 17.0845 93.082 7.26053 88.8088C3.72158 87.2813 10.3547 85.135 12.4433 84.6903C14.6092 84.2262 15.8662 84.3036 15.8662 84.3036C11.9405 81.5386 -9.52533 89.7369 4.95925 92.0765C44.4563 98.496 76.976 89.1955 66.7266 84.5743ZM23.4933 76.5693C8.27387 80.8232 32.7565 89.6015 52.1337 81.3065C50.2439 80.5724 48.4195 79.6798 46.6802 78.6382C38.0359 80.2818 34.0328 80.3978 26.1814 79.5083C19.703 78.7736 23.4933 76.5693 23.4933 76.5693ZM58.264 95.3636C43.0446 98.2253 24.2669 97.8966 13.1472 96.0597C13.1472 96.0403 15.4291 97.9352 27.1483 98.6893C44.9784 99.8301 72.3618 98.0512 73 89.6209C73 89.6209 71.7623 92.8113 58.264 95.3636ZM49.8324 68.255C38.384 70.4592 31.7509 70.4012 23.3773 69.5311C16.8989 68.8544 21.134 65.722 21.134 65.722C4.34815 71.2907 30.4552 77.5941 53.9128 70.7299C52.3968 70.1947 51.0076 69.3521 49.8324 68.255Z" fill="#3293ED"/>
</svg>
