<svg width="84" height="82" viewBox="0 0 84 82" fill="none" xmlns="http://www.w3.org/2000/svg">
<path d="M0 0.0500488V81.9501H84V0.0500488H0ZM3.5 3.55005H80.5V78.4501H3.5V3.55005ZM20.3 19.2301C20.3 18.9956 20.79 18.824 21.084 18.824C23.338 18.7085 26.642 18.649 30.107 18.649C39.809 18.649 43.582 23.969 43.582 30.7801C43.582 39.6701 37.135 43.4851 29.225 43.4851C27.895 43.4851 27.44 43.4256 26.5125 43.4256V56.8726C26.5125 57.1631 26.397 57.2786 26.11 57.2786H20.706C20.4155 57.2786 20.3035 57.1736 20.3035 56.8831V19.2301H20.3ZM26.5125 37.8221C27.3175 37.8781 27.9545 37.8781 29.3475 37.8781C33.4425 37.8781 37.2925 36.4361 37.2925 30.8921C37.2925 26.4471 34.5415 24.1931 29.8655 24.1931C28.7479 24.1877 27.6306 24.2262 26.516 24.3085V37.8326L26.5125 37.8221ZM56.637 33.6641C53.865 33.6641 52.941 35.0501 52.941 36.2051C52.941 37.4756 53.571 38.34 57.2705 40.2476C62.7585 42.9076 64.4875 45.445 64.4875 49.1971C64.4875 54.7971 60.2175 57.8071 54.4425 57.8071C51.3765 57.8071 48.7725 57.1666 47.2675 56.3021C47.04 56.1866 46.9875 56.0151 46.9875 55.7246V50.59C46.9875 50.2401 47.1555 50.1246 47.3865 50.2961C49.4827 51.6569 51.9293 52.3792 54.4285 52.3751C57.2005 52.3751 58.3555 51.2201 58.3555 49.659C58.3555 48.3885 57.5505 47.2896 54.026 45.4416C49.056 43.0616 46.977 40.6465 46.977 36.597C46.977 32.0925 50.498 28.337 56.6195 28.337C59.6295 28.337 61.7435 28.799 62.8985 29.317C63.1855 29.492 63.2485 29.779 63.2485 30.01V34.805C63.2485 35.0956 63.0735 35.2705 62.7235 35.1551C61.1695 34.231 58.8735 33.65 56.623 33.65L56.637 33.6641Z" fill="#3293ED"/>
</svg>
