<svg width="83" height="82" viewBox="0 0 83 82" fill="none" xmlns="http://www.w3.org/2000/svg">
<path d="M69.125 0.0500488H14.875C6.65 0.0500488 0 6.70005 0 14.925V67.0751C0 75.3001 6.65 81.9501 14.875 81.9501H69.125C77.35 81.9501 84 75.3001 84 67.0751V14.925C84 6.70005 77.35 0.0500488 69.125 0.0500488ZM80.465 65.7101C80.4728 67.3794 80.151 69.0339 79.5179 70.5785C78.8848 72.1232 77.9529 73.5276 76.7758 74.7113C75.5986 75.895 74.1993 76.8345 72.6582 77.4761C71.117 78.1177 69.4644 78.4487 67.795 78.4501H16.205C9.205 78.4501 3.5 72.7451 3.5 65.7451V16.255C3.5 9.25505 9.205 3.55005 16.205 3.55005H67.76C71.1296 3.55005 74.3611 4.88861 76.7438 7.27126C79.1264 9.65391 80.465 12.8855 80.465 16.255V65.7101ZM33.215 38.375L43.015 57.2051C43.19 57.4851 43.085 57.7651 42.805 57.7651H36.715C36.33 57.7651 36.155 57.6601 35.98 57.3101C33.74 52.6901 31.465 48.0701 29.12 43.1001H29.05C26.95 47.7901 24.64 52.7251 22.4 57.3451C22.225 57.6251 22.05 57.7301 21.77 57.7301H15.995C15.645 57.7301 15.61 57.4501 15.785 57.2401L25.375 38.9701L16.1 20.49C15.89 20.21 16.1 20 16.31 20H22.33C22.68 20 22.82 20.07 22.96 20.385C25.165 25.0051 27.405 29.765 29.505 34.4201H29.575C31.605 29.8 33.845 25.005 36.015 20.42C36.19 20.14 36.295 19.965 36.645 19.965H42.28C42.56 19.965 42.665 20.1751 42.49 20.455L33.215 38.375ZM44.73 44.0801C44.73 35.9251 50.155 29.555 58.765 29.555C59.5 29.555 59.885 29.555 60.585 29.625V20.35C60.585 20.14 60.76 20 60.935 20H66.465C66.745 20 66.815 20.105 66.815 20.28V52.4101C66.815 53.3551 66.815 54.5451 66.99 55.84C66.99 56.0501 66.92 56.1201 66.71 56.2251C63.77 57.6251 60.69 58.2551 57.75 58.2551C50.155 58.2901 44.73 53.6001 44.73 44.0801ZM60.585 35.12C60.095 34.91 59.395 34.7701 58.555 34.7701C54.145 34.7701 51.065 38.1651 51.065 43.8001C51.065 50.2401 54.215 52.8301 58.17 52.8301C59.01 52.8301 59.92 52.7251 60.585 52.4451V35.12Z" fill="#3293ED"/>
</svg>
